{
 "actions": [],
 "creation": "2021-06-03 19:02:55.328423",
 "doctype": "DocType",
 "editable_grid": 1,
 "engine": "InnoDB",
 "field_order": [
  "reference_doctype",
  "reference_name",
  "column_break_3",
  "like",
  "dislike",
  "ip_address"
 ],
 "fields": [
  {
   "fieldname": "column_break_3",
   "fieldtype": "Column Break"
  },
  {
   "fieldname": "reference_doctype",
   "fieldtype": "Select",
   "in_list_view": 1,
   "label": "Reference Document Type",
   "options": "\nBlog Post"
  },
  {
   "fieldname": "reference_name",
   "fieldtype": "Dynamic Link",
   "in_list_view": 1,
   "label": "Reference Name",
   "options": "reference_doctype",
   "reqd": 1
  },
  {
   "fieldname": "ip_address",
   "fieldtype": "Data",
   "hidden": 1,
   "label": "IP Address",
   "read_only": 1
},
{
 "default": "0",
 "fieldname": "like",
 "fieldtype": "Check",
 "label": "Like"
},
{
 "default": "0",
 "fieldname": "dislike",
 "fieldtype": "Check",
 "label": "Dislike"
  }
 ],
 "index_web_pages_for_search": 1,
 "links": [],
 "modified": "2021-10-27 22:33:58.362849",
 "modified_by": "Administrator",
 "module": "Core",
 "name": "Feedback",
 "owner": "Administrator",
 "permissions": [
  {
   "create": 1,
   "delete": 1,
   "email": 1,
   "export": 1,
   "print": 1,
   "read": 1,
   "report": 1,
   "role": "System Manager",
   "share": 1,
   "write": 1
  }
 ],
 "sort_field": "modified",
 "sort_order": "DESC",
 "title_field": "reference_name",
 "track_changes": 1
}
