{
 "actions": [],
 "autoname": "Prompt",
 "creation": "2021-09-17 11:26:06.943999",
 "doctype": "DocType",
 "editable_grid": 1,
 "engine": "InnoDB",
 "field_order": [
  "server_ip",
  "port",
  "column_break_4",
  "printer_name"
 ],
 "fields": [
  {
   "default": "localhost",
   "fieldname": "server_ip",
   "fieldtype": "Data",
   "in_list_view": 1,
   "label": "Server IP",
   "reqd": 1
  },
  {
   "default": "631",
   "fieldname": "port",
   "fieldtype": "Int",
   "in_list_view": 1,
   "label": "Port",
   "reqd": 1
  },
  {
   "fieldname": "column_break_4",
   "fieldtype": "Column Break"
  },
  {
   "fieldname": "printer_name",
   "fieldtype": "Select",
   "label": "Printer Name",
   "reqd": 1
  }
 ],
 "index_web_pages_for_search": 1,
 "links": [],
 "modified": "2021-10-07 11:23:13.799402",
 "modified_by": "Administrator",
 "module": "Printing",
 "name": "Network Printer Settings",
 "naming_rule": "Set by user",
 "owner": "Administrator",
 "permissions": [
  {
   "create": 1,
   "delete": 1,
   "email": 1,
   "export": 1,
   "print": 1,
   "read": 1,
   "report": 1,
   "role": "System Manager",
   "share": 1,
   "write": 1
},
{
 "email": 1,
 "export": 1,
 "print": 1,
 "read": 1,
 "report": 1,
 "role": "All",
 "share": 1
  }
 ],
 "sort_field": "modified",
 "sort_order": "DESC",
 "track_changes": 1
}
