{
    "charts": [],
    "content": "[{\"type\":\"onboarding\",\"data\":{\"onboarding_name\":\"Customization\",\"col\":12}},{\"type\":\"header\",\"data\":{\"text\":\"<span class=\\\"h4\\\"><b>Your Shortcuts</b></span>\",\"col\":12}},{\"type\":\"shortcut\",\"data\":{\"shortcut_name\":\"Customize Form\",\"col\":3}},{\"type\":\"shortcut\",\"data\":{\"shortcut_name\":\"Custom Role\",\"col\":3}},{\"type\":\"shortcut\",\"data\":{\"shortcut_name\":\"Client Script\",\"col\":3}},{\"type\":\"shortcut\",\"data\":{\"shortcut_name\":\"Server Script\",\"col\":3}},{\"type\":\"spacer\",\"data\":{\"col\":12}},{\"type\":\"header\",\"data\":{\"text\":\"<span class=\\\"h4\\\"><b>Reports & Masters</b></span>\",\"col\":12}},{\"type\":\"card\",\"data\":{\"card_name\":\"Dashboards\",\"col\":4}},{\"type\":\"card\",\"data\":{\"card_name\":\"Form Customization\",\"col\":4}},{\"type\":\"card\",\"data\":{\"card_name\":\"Other\",\"col\":4}}]",
    "creation": "2020-03-02 15:15:03.839594",
    "docstatus": 0,
    "doctype": "Workspace",
    "for_user": "",
    "hide_custom": 0,
    "icon": "customization",
    "idx": 0,
    "label": "Customization",
    "links": [
     {
      "hidden": 0,
      "is_query_report": 0,
      "label": "Dashboards",
      "link_count": 0,
      "onboard": 0,
      "type": "Card Break"
     },
     {
      "dependencies": "",
      "hidden": 0,
      "is_query_report": 0,
      "label": "Dashboard",
      "link_count": 0,
      "link_to": "Dashboard",
      "link_type": "DocType",
      "onboard": 0,
      "type": "Link"
     },
     {
      "dependencies": "",
      "hidden": 0,
      "is_query_report": 0,
      "label": "Dashboard Chart",
      "link_count": 0,
      "link_to": "Dashboard Chart",
      "link_type": "DocType",
      "onboard": 0,
      "type": "Link"
     },
     {
      "dependencies": "",
      "hidden": 0,
      "is_query_report": 0,
      "label": "Dashboard Chart Source",
      "link_count": 0,
      "link_to": "Dashboard Chart Source",
      "link_type": "DocType",
      "onboard": 0,
      "type": "Link"
     },
     {
      "hidden": 0,
      "is_query_report": 0,
      "label": "Form Customization",
      "link_count": 0,
      "onboard": 0,
      "type": "Card Break"
     },
     {
      "dependencies": "",
      "hidden": 0,
      "is_query_report": 0,
      "label": "Customize Form",
      "link_count": 0,
      "link_to": "Customize Form",
      "link_type": "DocType",
      "onboard": 0,
      "type": "Link"
     },
     {
      "dependencies": "",
      "hidden": 0,
      "is_query_report": 0,
      "label": "Custom Field",
      "link_count": 0,
      "link_to": "Custom Field",
      "link_type": "DocType",
      "onboard": 0,
      "type": "Link"
     },
     {
      "dependencies": "",
      "hidden": 0,
      "is_query_report": 0,
      "label": "Client Script",
      "link_count": 0,
      "link_to": "Client Script",
      "link_type": "DocType",
      "onboard": 0,
      "type": "Link"
     },
     {
      "dependencies": "",
      "hidden": 0,
      "is_query_report": 0,
      "label": "DocType",
      "link_count": 0,
      "link_to": "DocType",
      "link_type": "DocType",
      "onboard": 0,
      "type": "Link"
     },
     {
      "hidden": 0,
      "is_query_report": 0,
      "label": "Other",
      "link_count": 0,
      "onboard": 0,
      "type": "Card Break"
     },
     {
      "dependencies": "",
      "hidden": 0,
      "is_query_report": 0,
      "label": "Custom Translations",
      "link_count": 0,
      "link_to": "Translation",
      "link_type": "DocType",
      "onboard": 0,
      "type": "Link"
     }
    ],
    "modified": "2022-01-13 17:28:08.345794",
    "modified_by": "Administrator",
    "module": "Custom",
    "name": "Customization",
    "owner": "Administrator",
    "parent_page": "",
    "public": 1,
    "restrict_to_domain": "",
    "roles": [],
    "sequence_id": 8.0,
    "shortcuts": [
     {
      "label": "Customize Form",
      "link_to": "Customize Form",
      "type": "DocType"
     },
     {
      "label": "Custom Role",
      "link_to": "Custom Role",
      "type": "DocType"
     },
     {
      "label": "Client Script",
      "link_to": "Client Script",
      "type": "DocType"
     },
     {
      "doc_view": "",
      "label": "Server Script",
      "link_to": "Server Script",
      "type": "DocType"
     }
    ],
    "title": "Customization"
   }
